<?xml version="1.0" encoding="UTF-8"?>
<svg width="23px" height="26px" viewBox="0 0 23 26" version="1.1" xmlns="http://www.w3.org/2000/svg" xmlns:xlink="http://www.w3.org/1999/xlink">
    <!-- Generator: Sketch 46.2 (44496) - http://www.bohemiancoding.com/sketch -->
    <title>Play</title>
    <desc>Created with Sketch.</desc>
    <defs></defs>
    <g id="Page-1" stroke="none" stroke-width="1" fill="#c1c1c1" fill-rule="evenodd">
        <g id="all" transform="translate(-7.000000, -5.000000)" fill-rule="nonzero" fill="#c1c1c1">
            <g id="Play" transform="translate(7.000000, 5.000000)">
                <polyline id="Fill-4" points="0 0 0 26 22.75 13.0003912 0 0"></polyline>
            </g>
        </g>
    </g>
</svg>
